test/tb.vcd
$date
	Mon Apr 28 19:57:31 2025
$end
$version
	Icarus Verilog
$end
$timescale
	1ps
$end
$scope module tb $end
$var wire 8 ! uio_oe [7:0] $end
$var wire 8 " uio_out [7:0] $end
$var wire 8 # uo_out [7:0] $end
$var reg 1 $ clk $end
$var reg 1 % ena $end
$var reg 1 & rst_n $end
$var reg 8 ' ui_in [7:0] $end
$var reg 8 ( uio_in [7:0] $end
$scope module tt_um_tgrillz_sixSidedDie $end
$var wire 1 $ clk $end
$var wire 1 % ena $end
$var wire 1 & rst_n $end
$var wire 8 ) ui_in [7:0] $end
$var wire 8 * uio_in [7:0] $end
$var wire 8 + uio_oe [7:0] $end
$var wire 8 , uio_out [7:0] $end
$var wire 8 - uo_out [7:0] $end
$var wire 8 . thisRoll [7:0] $end
$var wire 7 / outNum [6:0] $end
$var wire 1 0 _unused $end
$var parameter 8 1 STATE $end
$var reg 1 2 lastReset $end
$var reg 8 3 outRoll [7:0] $end
$var reg 8 4 roll [7:0] $end
$scope module lfsr $end
$var wire 1 $ clk $end
$var wire 8 5 out [7:0] $end
$var wire 1 & rst_n $end
$var wire 8 6 seed [7:0] $end
$var parameter 32 7 BITNUM $end
$var reg 8 8 insideRoll [7:0] $end
$var reg 8 9 lfsrVal [7:0] $end
$var reg 8 : state [7:0] $end
$upscope $end
$scope module sevenSegment $end
$var wire 1 $ clk $end
$var wire 8 ; inputNum [7:0] $end
$var wire 1 & rst_n $end
$var wire 7 < out [6:0] $end
$var reg 8 = displayIt [7:0] $end
$var reg 7 > outNum [6:0] $end
$upscope $end
$upscope $end
$upscope $end
$enddefinitions $end
$comment Show the parameter values. $end
$dumpall
b1000 7
b10000001 1
$end
#0
$dumpvars
b111111 >
b0 =
b111111 <
b0 ;
b10000001 :
bx 9
bx 8
b10000001 6
bx 5
b0 4
b0 3
12
00
b111111 /
bx .
b111111 -
b0 ,
b0 +
b0 *
b0 )
b0 (
b0 '
0&
1%
1$
b111111 #
b0 "
b0 !
$end
#5000000
0$
#10000000
1$
#15000000
0$
#20000000
1$
#25000000
0$
#30000000
1$
#35000000
0$
#40000000
b1 '
b1 )
1&
1$
#45000000
0$
#50000000
b1 9
b10 :
1$
#55000000
0$
#60000000
b10 .
b10 5
b10 8
b10 9
b100 :
1$
#65000000
0$
#70000000
b11 .
b11 5
b11 8
b100 9
b1000 :
1$
#75000000
0$
#80000000
b101 .
b101 5
b101 8
b0 9
b10001 :
1$
#85000000
0$
#90000000
b1 .
b1 5
b1 8
b1 9
b100011 :
1$
#95000000
0$
#100000000
b10 .
b10 5
b10 8
b11 9
b1000111 :
1$
#105000000
0$
#110000000
b100 .
b100 5
b100 8
b111 9
b10001111 :
1$
#115000000
0$
#120000000
b11111 :
1$
#125000000
0$
#130000000
b111110 :
1$
#135000000
0$
#140000000
b110 9
b1111101 :
1$
#145000000
0$
#150000000
b101 9
b11111010 :
1$
#155000000
0$
#160000000
b110 .
b110 5
b110 8
b10 9
b11110100 :
1$
#165000000
0$
#170000000
b11 .
b11 5
b11 8
b100 9
b11101001 :
1$
#175000000
0$
#180000000
b101 .
b101 5
b101 8
b1 9
b11010011 :
1$
#185000000
0$
#190000000
b10 .
b10 5
b10 8
b11 9
b10100110 :
1$
#195000000
0$
#200000000
b100 .
b100 5
b100 8
b110 9
b1001101 :
1$
#205000000
0$
#210000000
b101 9
b10011010 :
1$
#215000000
0$
#220000000
b110 .
b110 5
b110 8
b10 9
b110100 :
1$
#225000000
0$
#230000000
b11 .
b11 5
b11 8
b100 9
b1101000 :
1$
#235000000
0$
#240000000
b0 '
b0 )
b101 .
b101 5
b101 8
b0 9
b11010001 :
1$
#245000000
0$
#250000000
b101 4
b1 .
b1 5
b1 8
b1 9
b10100010 :
1$
#255000000
0$
#260000000
b10 .
b10 5
b10 8
b10 9
b1000101 :
b1 4
1$
#265000000
0$
#270000000
b10 4
b11 .
b11 5
b11 8
b101 9
b10001011 :
1$
#275000000
0$
#280000000
b110 .
b110 5
b110 8
b11 9
b10111 :
b11 4
1$
#285000000
0$
#290000000
b110 4
b100 .
b100 5
b100 8
b111 9
b101111 :
1$
#295000000
0$
#300000000
b1011110 :
b100 4
1$
#305000000
0$
#310000000
b110 9
b10111101 :
1$
#315000000
0$
#320000000
b101 9
b1111011 :
1$
#325000000
0$
#330000000
b110 .
b110 5
b110 8
b11 9
b11110110 :
1$
#335000000
0$
#340000000
b1 '
b1 )
b100 .
b100 5
b100 8
b110 9
b11101101 :
b110 4
1$
#345000000
0$
#350000000
b110 3
b110 ;
b101 9
b11011011 :
1$
#355000000
0$
#360000000
b1111100 #
b1111100 -
b1111100 /
b1111100 <
b1111100 >
b110 .
b110 5
b110 8
b11 9
b10110111 :
b110 =
1$
#365000000
0$
#370000000
b100 .
b100 5
b100 8
b111 9
b1101110 :
1$
#375000000
0$
#380000000
b110 9
b11011101 :
1$
#385000000
0$
#390000000
b101 9
b10111011 :
1$
#395000000
0$
#400000000
b110 .
b110 5
b110 8
b11 9
b1110111 :
1$
#405000000
0$
#410000000
b100 .
b100 5
b100 8
b111 9
b11101111 :
1$
#415000000
0$
#420000000
b11011111 :
1$
#425000000
0$
#430000000
b10111111 :
1$
#435000000
0$
#440000000
b1111111 :
1$
#445000000
0$
#450000000
b11111110 :
1$
#455000000
0$
#460000000
b110 9
b11111100 :
1$
#465000000
0$
#470000000
b100 9
b11111000 :
1$
#475000000
0$
#480000000
b101 .
b101 5
b101 8
b0 9
b11110000 :
1$
#485000000
0$
#490000000
b1 .
b1 5
b1 8
b11100001 :
1$
#495000000
0$
#500000000
b1 9
b11000010 :
1$
#505000000
0$
#510000000
b10 .
b10 5
b10 8
b10 9
b10000101 :
1$
#515000000
0$
#520000000
b11 .
b11 5
b11 8
b101 9
b1010 :
1$
#525000000
0$
#530000000
b110 .
b110 5
b110 8
b10 9
b10101 :
1$
#535000000
0$
#540000000
b11 .
b11 5
b11 8
b101 9
b101011 :
1$
#545000000
0$
#550000000
b110 .
b110 5
b110 8
b11 9
b1010110 :
1$
#555000000
0$
#560000000
b100 .
b100 5
b100 8
b110 9
b10101100 :
1$
#565000000
0$
#570000000
b100 9
b1011000 :
1$
#575000000
0$
#580000000
b101 .
b101 5
b101 8
b0 9
b10110001 :
1$
#585000000
0$
#590000000
b1 .
b1 5
b1 8
b1 9
b1100010 :
1$
#595000000
0$
#600000000
b10 .
b10 5
b10 8
b10 9
b11000100 :
1$
#605000000
0$
#610000000
b11 .
b11 5
b11 8
b100 9
b10001001 :
1$
#615000000
0$
#620000000
b101 .
b101 5
b101 8
b1 9
b10011 :
1$
#625000000
0$
#630000000
b10 .
b10 5
b10 8
b11 9
b100111 :
1$
#635000000
0$
#640000000
b0 '
b0 )
b100 .
b100 5
b100 8
b111 9
b1001111 :
1$
#645000000
0$
#650000000
b0 3
b0 ;
b100 4
b10011110 :
1$
#655000000
0$
#660000000
b111111 #
b111111 -
b111111 /
b111111 <
b111111 >
b110 9
b111100 :
b0 =
1$
#665000000
0$
#670000000
b100 9
b1111001 :
1$
#675000000
0$
#680000000
b101 .
b101 5
b101 8
b1 9
b11110010 :
1$
#685000000
0$
#690000000
b101 4
b10 .
b10 5
b10 8
b10 9
b11100101 :
1$
#695000000
0$
#700000000
b11 .
b11 5
b11 8
b101 9
b11001010 :
b10 4
1$
#705000000
0$
#710000000
b11 4
b110 .
b110 5
b110 8
b10 9
b10010100 :
1$
#715000000
0$
#720000000
b11 .
b11 5
b11 8
b100 9
b101001 :
b110 4
1$
#725000000
0$
#730000000
b11 4
b101 .
b101 5
b101 8
b1 9
b1010010 :
1$
#735000000
0$
#740000000
b10 .
b10 5
b10 8
b10 9
b10100100 :
b101 4
1$
#745000000
0$
#750000000
b10 4
b11 .
b11 5
b11 8
b100 9
b1001001 :
1$
#755000000
0$
#760000000
b101 .
b101 5
b101 8
b1 9
b10010010 :
b11 4
1$
#765000000
0$
#770000000
b101 4
b10 .
b10 5
b10 8
b10 9
b100101 :
1$
#775000000
0$
#780000000
b11 .
b11 5
b11 8
b101 9
b1001011 :
b10 4
1$
#785000000
0$
#790000000
b11 4
b110 .
b110 5
b110 8
b11 9
b10010110 :
1$
#795000000
0$
#800000000
b100 .
b100 5
b100 8
b110 9
b101101 :
b110 4
1$
#805000000
0$
#810000000
b100 4
b101 9
b1011010 :
1$
#815000000
0$
#820000000
b110 .
b110 5
b110 8
b10 9
b10110101 :
1$
#825000000
0$
#830000000
b110 4
b11 .
b11 5
b11 8
b101 9
b1101010 :
1$
#835000000
0$
#840000000
b1 '
b1 )
b110 .
b110 5
b110 8
b10 9
b11010101 :
b11 4
1$
#845000000
0$
#850000000
b11 3
b11 ;
b11 .
b11 5
b11 8
b101 9
b10101010 :
1$
#855000000
0$
#860000000
b1001111 #
b1001111 -
b1001111 /
b1001111 <
b1001111 >
b110 .
b110 5
b110 8
b10 9
b1010100 :
b11 =
1$
#865000000
0$
#870000000
b11 .
b11 5
b11 8
b100 9
b10101000 :
1$
#875000000
0$
#880000000
b101 .
b101 5
b101 8
b0 9
b1010000 :
1$
#885000000
0$
#890000000
b1 .
b1 5
b1 8
b10100000 :
1$
#895000000
0$
#900000000
b1000001 :
1$
#905000000
0$
#910000000
b1 9
b10000011 :
1$
#915000000
0$
#920000000
b10 .
b10 5
b10 8
b11 9
b110 :
1$
#925000000
0$
#930000000
b100 .
b100 5
b100 8
b110 9
b1100 :
1$
#935000000
0$
#940000000
b0 '
b0 )
b100 9
b11001 :
1$
#945000000
0$
#950000000
b0 3
b0 ;
b100 4
b101 .
b101 5
b101 8
b1 9
b110010 :
1$
#955000000
0$
#960000000
b111111 #
b111111 -
b111111 /
b111111 <
b111111 >
b10 .
b10 5
b10 8
b10 9
b1100100 :
b0 =
b101 4
1$
#965000000
0$
#970000000
b10 4
b11 .
b11 5
b11 8
b100 9
b11001000 :
1$
#975000000
0$
#980000000
b101 .
b101 5
b101 8
b0 9
b10010000 :
b11 4
1$
#985000000
0$
#990000000
b101 4
b1 .
b1 5
b1 8
b100001 :
1$
#995000000
0$
#1000000000
b1 9
b1000011 :
b1 4
1$
#1005000000
0$
#1010000000
b10 .
b10 5
b10 8
b11 9
b10000111 :
1$
#1015000000
0$
#1020000000
b100 .
b100 5
b100 8
b111 9
b1110 :
b10 4
1$
#1025000000
0$
#1030000000
b100 4
b110 9
b11101 :
1$
#1035000000
0$
#1040000000
b101 9
b111010 :
1$
#1045000000
0$
#1050000000
b110 .
b110 5
b110 8
b10 9
b1110101 :
1$
#1055000000
0$
#1060000000
b11 .
b11 5
b11 8
b101 9
b11101011 :
b110 4
1$
#1065000000
0$
#1070000000
b11 4
b110 .
b110 5
b110 8
b11 9
b11010111 :
1$
#1075000000
0$
#1080000000
b100 .
b100 5
b100 8
b111 9
b10101110 :
b110 4
1$
#1085000000
0$
#1090000000
b100 4
b110 9
b1011100 :
1$
#1095000000
0$
#1100000000
b100 9
b10111001 :
1$
#1105000000
0$
#1110000000
b101 .
b101 5
b101 8
b1 9
b1110011 :
1$
#1115000000
0$
#1120000000
b10 .
b10 5
b10 8
b11 9
b11100111 :
b101 4
1$
#1125000000
0$
#1130000000
b10 4
b100 .
b100 5
b100 8
b111 9
b11001110 :
1$
#1135000000
0$
#1140000000
b1 '
b1 )
b110 9
b10011100 :
b100 4
1$
#1145000000
0$
#1150000000
b100 3
b100 ;
b100 9
b111000 :
1$
#1155000000
0$
#1160000000
b1100110 #
b1100110 -
b1100110 /
b1100110 <
b1100110 >
b101 .
b101 5
b101 8
b0 9
b1110001 :
b100 =
1$
#1165000000
0$
#1170000000
b1 .
b1 5
b1 8
b1 9
b11100011 :
1$
#1175000000
0$
#1180000000
b10 .
b10 5
b10 8
b11 9
b11000110 :
1$
#1185000000
0$
#1190000000
b100 .
b100 5
b100 8
b110 9
b10001101 :
1$
#1195000000
0$
#1200000000
b101 9
b11011 :
1$
#1205000000
0$
#1210000000
b110 .
b110 5
b110 8
b11 9
b110110 :
1$
#1215000000
0$
#1220000000
b100 .
b100 5
b100 8
b110 9
b1101100 :
1$
#1225000000
0$
#1230000000
b100 9
b11011001 :
1$
#1235000000
0$
#1240000000
b0 '
b0 )
b101 .
b101 5
b101 8
b1 9
b10110011 :
1$
#1245000000
0$
#1250000000
b0 3
b0 ;
b101 4
b10 .
b10 5
b10 8
b11 9
b1100110 :
1$
#1255000000
0$
#1260000000
b111111 #
b111111 -
b111111 /
b111111 <
b111111 >
b100 .
b100 5
b100 8
b110 9
b11001100 :
b0 =
b10 4
1$
#1265000000
0$
#1270000000
b100 4
b100 9
b10011000 :
1$
#1275000000
0$
#1280000000
b101 .
b101 5
b101 8
b0 9
b110000 :
1$
#1285000000
0$
#1290000000
b101 4
b1 .
b1 5
b1 8
b1100000 :
1$
#1295000000
0$
#1300000000
b11000000 :
b1 4
1$
#1305000000
0$
#1310000000
b10000001 :
1$
#1315000000
0$
#1320000000
b1 9
b10 :
1$
#1325000000
0$
#1330000000
b10 .
b10 5
b10 8
b10 9
b100 :
1$
#1335000000
0$
#1340000000
b11 .
b11 5
b11 8
b100 9
b1000 :
b10 4
1$
#1345000000
0$
#1350000000
b11 4
b101 .
b101 5
b101 8
b0 9
b10001 :
1$
#1355000000
0$
#1360000000
b1 .
b1 5
b1 8
b1 9
b100011 :
b101 4
1$
#1365000000
0$
#1370000000
b1 4
b10 .
b10 5
b10 8
b11 9
b1000111 :
1$
#1375000000
0$
#1380000000
b100 .
b100 5
b100 8
b111 9
b10001111 :
b10 4
1$
#1385000000
0$
#1390000000
b100 4
b11111 :
1$
#1395000000
0$
#1400000000
b111110 :
1$
#1405000000
0$
#1410000000
b110 9
b1111101 :
1$
#1415000000
0$
#1420000000
b101 9
b11111010 :
1$
#1425000000
0$
#1430000000
b110 .
b110 5
b110 8
b10 9
b11110100 :
1$
#1435000000
0$
#1440000000
b11 .
b11 5
b11 8
b100 9
b11101001 :
b110 4
1$
